ISSS608-VAA - Take-home Exercise 2
…
2.3 Data Wrangling

2.3.1 Processing Imports Data

Let us have a quick glance of the dataframe using the code below.

tibble(imports)

# A tibble: 187 × 266
   ...1  ...2  ...3  ...4  ...5  ...6  ...7  ...8  ...9  ...10 ...11 ...12 ...13
   <chr> <chr> <chr> <chr> <chr> <chr> <chr> <chr> <chr> <chr> <chr> <chr> <chr>
 1 Them… <NA>  <NA>  <NA>  <NA>  <NA>  <NA>  <NA>  <NA>  <NA>  <NA>  <NA>  <NA> 
 2 Subj… <NA>  <NA>  <NA>  <NA>  <NA>  <NA>  <NA>  <NA>  <NA>  <NA>  <NA>  <NA> 
 3 Topi… <NA>  <NA>  <NA>  <NA>  <NA>  <NA>  <NA>  <NA>  <NA>  <NA>  <NA>  <NA> 
 4 Tabl… <NA>  <NA>  <NA>  <NA>  <NA>  <NA>  <NA>  <NA>  <NA>  <NA>  <NA>  <NA> 
 5 <NA>  <NA>  <NA>  <NA>  <NA>  <NA>  <NA>  <NA>  <NA>  <NA>  <NA>  <NA>  <NA> 
 6 Data… <NA>  <NA>  <NA>  <NA>  <NA>  <NA>  <NA>  <NA>  <NA>  <NA>  <NA>  <NA> 
 7 Sour… <NA>  <NA>  <NA>  <NA>  <NA>  <NA>  <NA>  <NA>  <NA>  <NA>  <NA>  <NA> 
 8 <NA>  <NA>  <NA>  <NA>  <NA>  <NA>  <NA>  <NA>  <NA>  <NA>  <NA>  <NA>  <NA> 
 9 <NA>  <NA>  <NA>  <NA>  <NA>  <NA>  <NA>  <NA>  <NA>  <NA>  <NA>  <NA>  <NA> 
10 Data… 2025… 2024… 2024… 2024… 2024… 2024… 2024… 2024… 2024… 2024… 2024… 2024…
# ℹ 177 more rows
# ℹ 253 more variables: ...14 <chr>, ...15 <chr>, ...16 <chr>, ...17 <chr>,
#   ...18 <chr>, ...19 <chr>, ...20 <chr>, ...21 <chr>, ...22 <chr>,
#   ...23 <chr>, ...24 <chr>, ...25 <chr>, ...26 <chr>, ...27 <chr>,
#   ...28 <chr>, ...29 <chr>, ...30 <chr>, ...31 <chr>, ...32 <chr>,
#   ...33 <chr>, ...34 <chr>, ...35 <chr>, ...36 <chr>, ...37 <chr>,
#   ...38 <chr>, ...39 <chr>, ...40 <chr>, ...41 <chr>, ...42 <chr>, …
…
