ISSS608-VAA - Take-home Exercise 1
…
From the table, we will keep all the categorical and numerical columns to gain further insights on this dataset. There are 3 columns that we should remove from this dataset, which are Date, Seasonal_Impact_Score and Average_Load_Percentage.

Date: This column is removed because it only consists of the timestamp of the data entry, which is not necessarily value-add to this analysis.

Seasonal_Impact_Score: This column is removed because there is no description of how the value in this column is calculated. As there is no details on the column calculation, there will be no insights gained from analysing this column.

Average_Load_Percentage: This column is removed because there is no description and source of the column calculation, hence, there is no need to use this column for the analysis.

The 3 columns will be removed using the code chunk below:

ship <- ship %>% select(-c("Date", "Seasonal_Impact_Score", "Average_Load_Percentage"))

ship

# A tibble: 2,736 × 15
   Ship_Type    Route_Type Engine_Type Maintenance_Status Speed_Over_Ground_kn…¹
   <chr>        <chr>      <chr>       <chr>                               <dbl>
 1 Container S… None       Heavy Fuel… Critical                             12.6
 2 Fish Carrier Short-haul Steam Turb… Good                                 10.4
 3 Container S… Long-haul  Diesel      Fair                                 20.7
 4 Bulk Carrier Transocea… Steam Turb… Fair                                 21.1
 5 Fish Carrier Transocea… Diesel      Fair                                 13.7
 6 Fish Carrier Long-haul  Heavy Fuel… Fair                                 18.6
 7 Fish Carrier Transocea… Heavy Fuel… Critical                             20.4
 8 Container S… Short-haul Diesel      Critical                             23.5
 9 None         Coastal    Heavy Fuel… Good                                 17.3
10 Container S… Long-haul  Diesel      Fair                                 23.2
# ℹ 2,726 more rows
# ℹ abbreviated name: ¹​Speed_Over_Ground_knots
# ℹ 10 more variables: Engine_Power_kW <dbl>, Distance_Traveled_nm <dbl>,
#   Draft_meters <dbl>, Weather_Condition <chr>, Cargo_Weight_tons <dbl>,
#   Operational_Cost_USD <dbl>, Revenue_per_Voyage_USD <dbl>,
#   Turnaround_Time_hours <dbl>, Efficiency_nm_per_kWh <dbl>,
#   Weekly_Voyage_Count <dbl>
…
